<svg width="26" height="26" viewBox="0 0 26 26" fill="none" xmlns="http://www.w3.org/2000/svg">
<path d="M1.50545 16.08C1.71987 16.8801 2.54237 17.355 3.34257 17.1406C4.14277 16.9262 4.61764 16.1037 4.40323 15.3035L1.50545 16.08ZM15.3035 21.5967C14.5033 21.8112 14.0284 22.6337 14.2428 23.4339C14.4572 24.2341 15.2797 24.7089 16.0799 24.4945L15.3035 21.5967ZM4.40323 15.3035C3.13105 10.5556 5.94863 5.67544 10.6965 4.40326L9.92002 1.50549C3.57178 3.20649 -0.195552 9.7317 1.50545 16.08L4.40323 15.3035ZM10.6965 4.40326C15.4443 3.13108 20.3245 5.94866 21.5967 10.6965L24.4945 9.92005C22.7935 3.57181 16.2683 -0.195523 9.92002 1.50549L10.6965 4.40326ZM21.5967 10.6965C22.8689 15.4444 20.0513 20.3246 15.3035 21.5967L16.0799 24.4945C22.4282 22.7935 26.1955 16.2683 24.4945 9.92005L21.5967 10.6965Z" fill="currentColor"/>
<path d="M3.14112 20.4625C3.72791 21.0473 4.67766 21.0456 5.26244 20.4588C5.84721 19.872 5.84558 18.9223 5.25878 18.3375L3.14112 20.4625ZM5.25074 18.3295C4.66394 17.7447 3.7142 17.7463 3.12942 18.3331C2.54464 18.9199 2.54628 19.8697 3.13307 20.4545L5.25074 18.3295ZM5.25878 18.3375L5.25074 18.3295L3.13307 20.4545L3.14112 20.4625L5.25878 18.3375Z" fill="currentColor"/>
</svg>
