<svg xmlns="http://www.w3.org/2000/svg" viewBox="0 0 140 140">
  
<g transform="matrix(5.833333333333333,0,0,5.833333333333333,0,0)"><g>
    <path d="M.72,19.37a.26.26,0,0,0-.22.14.24.24,0,0,0,0,.26c.38.52,1,1.35,1,1.35a2,2,0,0,0,1.56.75H9.57a.25.25,0,0,1,.25.25v1a.75.75,0,0,0,.75.75h3a.74.74,0,0,0,.75-.75v-1a.25.25,0,0,1,.25-.25h6.35a2,2,0,0,0,1.56-.75s.63-.83,1-1.35a.23.23,0,0,0,0-.26.26.26,0,0,0-.22-.14Z" style="fill: #000000"></path>
    <path d="M23.5,18.37a.25.25,0,0,0,.21-.1.25.25,0,0,0,0-.22c-.59-1.84-3.52-10.8-3.52-10.8a2,2,0,0,0-1.9-1.38H8.16a.26.26,0,0,1-.2-.1.24.24,0,0,1,0-.23l.61-1.75a1,1,0,0,1,1-.67h.72a.26.26,0,0,1,.21.12,2,2,0,0,0,1.65.88h1.5a2,2,0,0,0,0-4h-1.5A2,2,0,0,0,10.42,1a.25.25,0,0,1-.21.11H9.49a3,3,0,0,0-2.83,2L5.75,5.71a.26.26,0,0,1-.22.17A2,2,0,0,0,3.78,7.25h0s-2.93,9-3.52,10.8a.25.25,0,0,0,0,.22.25.25,0,0,0,.21.1Zm-5.12-2.64a.46.46,0,0,1-.08.44.48.48,0,0,1-.4.2H6.24a.49.49,0,0,1-.4-.2.53.53,0,0,1-.08-.44L8,8.23a.5.5,0,0,1,.48-.36H15.7a.5.5,0,0,1,.48.36Z" style="fill: #000000"></path>
  </g></g></svg>